{
    "$schema": "/mediawiki/recentchange/1.0.0",
    "meta": {
        "uri": "https://commons.wikimedia.org/wiki/Category:CC-BY-SA-2.0",
        "request_id": "ab3e126a-57dd-45b5-9ca3-51545763d1f6",
        "id": "29cd4fbe-8dd6-42db-b34f-df43cc040b90",
        "dt": "2022-08-02T00:58:22Z",
        "domain": "commons.wikimedia.org",
        "stream": "mediawiki.recentchange",
        "topic": "eqiad.mediawiki.recentchange",
        "partition": 0,
        "offset": 4055536403
    },
    "id": 1984836799,
    "type": "categorize",
    "namespace": 14,
    "title": "Category:CC-BY-SA-2.0",
    "comment": "[[:File:Station Road, North Harby - geograph.org.uk - 3653475.jpg]] added to category",
    "timestamp": 1659401902,
    "user": "GeographBot",
    "bot": true,
    "server_url": "https://commons.wikimedia.org",
    "server_name": "commons.wikimedia.org",
    "server_script_path": "/w",
    "wiki": "commonswiki",
    "parsedcomment": "<a href=\"/wiki/File:Station_Road,_North_Harby_-_geograph.org.uk_-_3653475.jpg\" title=\"File:Station Road, North Harby - geograph.org.uk - 3653475.jpg\">File:Station Road, North Harby - geograph.org.uk - 3653475.jpg</a> added to category"
}